module bitbucket.org/creachadair/stringset

go 1.21

require honnef.co/go/tools v0.4.7

require (
	github.com/BurntSushi/toml v1.3.2 // indirect
	golang.org/x/exp/typeparams v0.0.0-20231219180239-dc181d75b848 // indirect
	golang.org/x/mod v0.15.0 // indirect
	golang.org/x/tools v0.18.0 // indirect
)
